:ladd-2006-g-2
zpa:set()
rpa:{Y2^4*Y3^4*r^2 - Y2^4 - Y3^4 + 1, Y3, Y2^4*Y3^4*r^2 - Y2^4*r^2 - Y3^4*r^2 + 1, Y2, Y1}
easy-nonrpa:{Y2^8*r^2 - 2*Y2^4*r^2 + 1, Y2^8*r^2 - 2*Y2^4 + 1, Y3^4*r - 1, Y3^4*r + 1, Y2^4*r - 1, Y2^4*r + 1}

:mladd-2006-g-2
zpa:set()
rpa:{Y2^4*Y3^4*r^2 - Y2^4 - Y3^4 + 1, Y3, Y2^4*Y3^4*r^2 - Y2^4*r^2 - Y3^4*r^2 + 1, Y2, Y1}
easy-nonrpa:{Y2^8*r^2 - 2*Y2^4*r^2 + 1, Y2^8*r^2 - 2*Y2^4 + 1, Y3^4*r - 1, Y3^4*r + 1, Y2^4*r - 1, Y2^4*r + 1}

:ladd-2006-g
zpa:set()
rpa:{Y2^4*Y3^4*r^2 - Y2^4 - Y3^4 + 1, Y3, Y2^4*Y3^4*r^2 - Y2^4*r^2 - Y3^4*r^2 + 1, Y2, Y1}
easy-nonrpa:{Y2^8*r^2 - 2*Y2^4*r^2 + 1, Y2^8*r^2 - 2*Y2^4 + 1, Y3^4*r - 1, Y3^4*r + 1, Y2^4*r - 1, Y2^4*r + 1}

